{
  "$schema": "https://raw.githubusercontent.com/avolgha/data/main/schemas/streambot-config-schema.json",
  "channels": [
    "bot"
  ],
  "cmd": {
    "prefix": "!"
  },
  "user": {
    "name": "bot",
    "oauth": "oauth:***********"
  },
  "server": {
    "express": 8080,
    "socketIo": 9999
  }
}